id_equipe,ville,nom_equipe,trigramme,conference,division
1610612737,Atlanta,Atlanta Hawks,ATL,East,Southeast
1610612738,Boston,Boston Celtics,BOS,East,Atlantic
1610612751,Brooklyn,Brooklyn Nets,BKN,East,Atlantic
1610612766,Charlotte,Charlotte Hornets,CHA,East,Southeast
1610612741,Chicago,Chicago Bulls,CHI,East,Central
1610612739,Cleveland,Cleveland Cavaliers,CLE,East,Central
1610612742,Dallas,Dallas Mavericks,DAL,West,Southwest
1610612743,Denver,Denver Nuggets,DEN,West,Northwest
1610612765,Detroit,Detroit Pistons,DET,East,Central
1610612744,Golden State,Golden State Warriors,GSW,West,Pacific
1610612745,Houston,Houston Rockets,HOU,West,Southwest
1610612754,Indiana,Indiana Pacers,IND,East,Central
1610612746,LA,LA Clippers,LAC,West,Pacific
1610612747,Los Angeles,Los Angeles Lakers,LAL,West,Pacific
1610612763,Memphis,Memphis Grizzlies,MEM,West,Southwest
1610612748,Miami,Miami Heat,MIA,East,Southeast
1610612749,Milwaukee,Milwaukee Bucks,MIL,East,Central
1610612750,Minnesota,Minnesota Timberwolves,MIN,West,Northwest
1610612740,New Orleans,New Orleans Pelicans,NOP,West,Southwest
1610612752,New York,New York Knicks,NYK,East,Atlantic
1610612760,Oklahoma City,Oklahoma City Thunder,OKC,West,Northwest
1610612753,Orlando,Orlando Magic,ORL,East,Southeast
1610612755,Philadelphia,Philadelphia 76ers,PHI,East,Atlantic
1610612756,Phoenix,Phoenix Suns,PHX,West,Pacific
1610612757,Portland,Portland Trail Blazers,POR,West,Northwest
1610612758,Sacramento,Sacramento Kings,SAC,West,Pacific
1610612759,San Antonio,San Antonio Spurs,SAS,West,Southwest
1610612761,Toronto,Toronto Raptors,TOR,East,Atlantic
1610612762,Utah,Utah Jazz,UTA,West,Northwest
1610612764,Washington,Washington Wizards,WAS,East,Southeast
